lab5/tim/SimonTATest.vcd
$date
	Thu Nov 29 17:57:08 2018
$end
$version
	Icarus Verilog
$end
$timescale
	100ps
$end
$scope module ButtonDebouncer $end
$var wire 1 ! noisy_btn $end
$var wire 1 " sysclk $end
$var reg 1 # clean_btn $end
$var reg 32 $ count [31:0] $end
$var reg 1 % xnew $end
$upscope $end
$scope module SimonTATest $end
$var wire 4 & pattern_leds [3:0] $end
$var wire 3 ' mode_leds [2:0] $end
$var reg 1 ( clk $end
$var reg 8 ) errors [7:0] $end
$var reg 1 * level $end
$var reg 4 + pattern [3:0] $end
$var reg 1 , rst $end
$var reg 1 - sysclk $end
$var integer 32 . idx [31:0] $end
$scope module simon $end
$var wire 1 * level $end
$var wire 4 / pattern [3:0] $end
$var wire 1 ( pclk $end
$var wire 1 , rst $end
$var wire 1 - sysclk $end
$var wire 1 0 uclk $end
$var wire 1 1 w_en $end
$var wire 2 2 st [1:0] $end
$var wire 4 3 pattern_leds [3:0] $end
$var wire 1 4 mux_control $end
$var wire 3 5 mode_leds [2:0] $end
$var wire 1 6 increase $end
$var wire 1 7 done $end
$var wire 1 8 clear $end
$var wire 1 9 RWeq $end
$var wire 1 : InputValid $end
$var wire 1 ; InputEqPat $end
$scope module ctrl $end
$var wire 1 0 clk $end
$var wire 1 , rst $end
$var wire 1 9 RWeq $end
$var wire 1 : InputValid $end
$var wire 1 ; InputEqPat $end
$var reg 1 8 clear $end
$var reg 1 7 done $end
$var reg 1 6 increase $end
$var reg 3 < mode_leds [2:0] $end
$var reg 1 4 mux_control $end
$var reg 2 = next_state [1:0] $end
$var reg 2 > st [1:0] $end
$var reg 2 ? state [1:0] $end
$var reg 1 1 w_en $end
$upscope $end
$scope module dpath $end
$var wire 1 8 clear $end
$var wire 1 0 clk $end
$var wire 1 7 done $end
$var wire 2 @ fl1 [1:0] $end
$var wire 2 A fl2 [1:0] $end
$var wire 2 B fl3 [1:0] $end
$var wire 2 C fl4 [1:0] $end
$var wire 1 6 increase $end
$var wire 1 * level $end
$var wire 1 4 mux_control $end
$var wire 4 D pattern [3:0] $end
$var wire 2 E st [1:0] $end
$var wire 1 1 w_en $end
$var wire 2 F sum [1:0] $end
$var wire 4 G read [3:0] $end
$var reg 1 ; InputEqPat $end
$var reg 1 : InputValid $end
$var reg 1 9 RWeq $end
$var reg 6 H counter [5:0] $end
$var reg 6 I hardCount [5:0] $end
$var reg 1 J levelHOLD $end
$var reg 4 K pattern_leds [3:0] $end
$scope module mem $end
$var wire 1 0 clk $end
$var wire 6 L r_addr [5:0] $end
$var wire 4 M r_data [3:0] $end
$var wire 1 8 rst $end
$var wire 6 N w_addr [5:0] $end
$var wire 4 O w_data [3:0] $end
$var wire 1 1 w_en $end
$scope begin wport[0] $end
$upscope $end
$scope begin wport[1] $end
$upscope $end
$scope begin wport[2] $end
$upscope $end
$scope begin wport[3] $end
$upscope $end
$scope begin wport[4] $end
$upscope $end
$scope begin wport[5] $end
$upscope $end
$scope begin wport[6] $end
$upscope $end
$scope begin wport[7] $end
$upscope $end
$scope begin wport[8] $end
$upscope $end
$scope begin wport[9] $end
$upscope $end
$scope begin wport[10] $end
$upscope $end
$scope begin wport[11] $end
$upscope $end
$scope begin wport[12] $end
$upscope $end
$scope begin wport[13] $end
$upscope $end
$scope begin wport[14] $end
$upscope $end
$scope begin wport[15] $end
$upscope $end
$scope begin wport[16] $end
$upscope $end
$scope begin wport[17] $end
$upscope $end
$scope begin wport[18] $end
$upscope $end
$scope begin wport[19] $end
$upscope $end
$scope begin wport[20] $end
$upscope $end
$scope begin wport[21] $end
$upscope $end
$scope begin wport[22] $end
$upscope $end
$scope begin wport[23] $end
$upscope $end
$scope begin wport[24] $end
$upscope $end
$scope begin wport[25] $end
$upscope $end
$scope begin wport[26] $end
$upscope $end
$scope begin wport[27] $end
$upscope $end
$scope begin wport[28] $end
$upscope $end
$scope begin wport[29] $end
$upscope $end
$scope begin wport[30] $end
$upscope $end
$scope begin wport[31] $end
$upscope $end
$scope begin wport[32] $end
$upscope $end
$scope begin wport[33] $end
$upscope $end
$scope begin wport[34] $end
$upscope $end
$scope begin wport[35] $end
$upscope $end
$scope begin wport[36] $end
$upscope $end
$scope begin wport[37] $end
$upscope $end
$scope begin wport[38] $end
$upscope $end
$scope begin wport[39] $end
$upscope $end
$scope begin wport[40] $end
$upscope $end
$scope begin wport[41] $end
$upscope $end
$scope begin wport[42] $end
$upscope $end
$scope begin wport[43] $end
$upscope $end
$scope begin wport[44] $end
$upscope $end
$scope begin wport[45] $end
$upscope $end
$scope begin wport[46] $end
$upscope $end
$scope begin wport[47] $end
$upscope $end
$scope begin wport[48] $end
$upscope $end
$scope begin wport[49] $end
$upscope $end
$scope begin wport[50] $end
$upscope $end
$scope begin wport[51] $end
$upscope $end
$scope begin wport[52] $end
$upscope $end
$scope begin wport[53] $end
$upscope $end
$scope begin wport[54] $end
$upscope $end
$scope begin wport[55] $end
$upscope $end
$scope begin wport[56] $end
$upscope $end
$scope begin wport[57] $end
$upscope $end
$scope begin wport[58] $end
$upscope $end
$scope begin wport[59] $end
$upscope $end
$scope begin wport[60] $end
$upscope $end
$scope begin wport[61] $end
$upscope $end
$scope begin wport[62] $end
$upscope $end
$scope begin wport[63] $end
$upscope $end
$upscope $end
$upscope $end
$upscope $end
$upscope $end
$scope module SimonTATest $end
$scope module simon $end
$scope module dpath $end
$scope module mem $end
$var reg 4 P \mem[0] [3:0] $end
$upscope $end
$upscope $end
$upscope $end
$upscope $end
$scope module SimonTATest $end
$scope module simon $end
$scope module dpath $end
$scope module mem $end
$var reg 4 Q \mem[1] [3:0] $end
$upscope $end
$upscope $end
$upscope $end
$upscope $end
$scope module SimonTATest $end
$scope module simon $end
$scope module dpath $end
$scope module mem $end
$var reg 4 R \mem[2] [3:0] $end
$upscope $end
$upscope $end
$upscope $end
$upscope $end
$scope module SimonTATest $end
$scope module simon $end
$scope module dpath $end
$scope module mem $end
$var reg 4 S \mem[3] [3:0] $end
$upscope $end
$upscope $end
$upscope $end
$upscope $end
$scope module SimonTATest $end
$scope module simon $end
$scope module dpath $end
$scope module mem $end
$var reg 4 T \mem[4] [3:0] $end
$upscope $end
$upscope $end
$upscope $end
$upscope $end
$scope module SimonTATest $end
$scope module simon $end
$scope module dpath $end
$scope module mem $end
$var reg 4 U \mem[5] [3:0] $end
$upscope $end
$upscope $end
$upscope $end
$upscope $end
$scope module SimonTATest $end
$scope module simon $end
$scope module dpath $end
$scope module mem $end
$var reg 4 V \mem[6] [3:0] $end
$upscope $end
$upscope $end
$upscope $end
$upscope $end
$scope module SimonTATest $end
$scope module simon $end
$scope module dpath $end
$scope module mem $end
$var reg 4 W \mem[7] [3:0] $end
$upscope $end
$upscope $end
$upscope $end
$upscope $end
$scope module SimonTATest $end
$scope module simon $end
$scope module dpath $end
$scope module mem $end
$var reg 4 X \mem[8] [3:0] $end
$upscope $end
$upscope $end
$upscope $end
$upscope $end
$scope module SimonTATest $end
$scope module simon $end
$scope module dpath $end
$scope module mem $end
$var reg 4 Y \mem[9] [3:0] $end
$upscope $end
$upscope $end
$upscope $end
$upscope $end
$scope module SimonTATest $end
$scope module simon $end
$scope module dpath $end
$scope module mem $end
$var reg 4 Z \mem[10] [3:0] $end
$upscope $end
$upscope $end
$upscope $end
$upscope $end
$scope module SimonTATest $end
$scope module simon $end
$scope module dpath $end
$scope module mem $end
$var reg 4 [ \mem[11] [3:0] $end
$upscope $end
$upscope $end
$upscope $end
$upscope $end
$scope module SimonTATest $end
$scope module simon $end
$scope module dpath $end
$scope module mem $end
$var reg 4 \ \mem[12] [3:0] $end
$upscope $end
$upscope $end
$upscope $end
$upscope $end
$scope module SimonTATest $end
$scope module simon $end
$scope module dpath $end
$scope module mem $end
$var reg 4 ] \mem[13] [3:0] $end
$upscope $end
$upscope $end
$upscope $end
$upscope $end
$scope module SimonTATest $end
$scope module simon $end
$scope module dpath $end
$scope module mem $end
$var reg 4 ^ \mem[14] [3:0] $end
$upscope $end
$upscope $end
$upscope $end
$upscope $end
$scope module SimonTATest $end
$scope module simon $end
$scope module dpath $end
$scope module mem $end
$var reg 4 _ \mem[15] [3:0] $end
$upscope $end
$upscope $end
$upscope $end
$upscope $end
$scope module SimonTATest $end
$scope module simon $end
$scope module dpath $end
$scope module mem $end
$var reg 4 ` \mem[16] [3:0] $end
$upscope $end
$upscope $end
$upscope $end
$upscope $end
$scope module SimonTATest $end
$scope module simon $end
$scope module dpath $end
$scope module mem $end
$var reg 4 a \mem[17] [3:0] $end
$upscope $end
$upscope $end
$upscope $end
$upscope $end
$scope module SimonTATest $end
$scope module simon $end
$scope module dpath $end
$scope module mem $end
$var reg 4 b \mem[18] [3:0] $end
$upscope $end
$upscope $end
$upscope $end
$upscope $end
$scope module SimonTATest $end
$scope module simon $end
$scope module dpath $end
$scope module mem $end
$var reg 4 c \mem[19] [3:0] $end
$upscope $end
$upscope $end
$upscope $end
$upscope $end
$scope module SimonTATest $end
$scope module simon $end
$scope module dpath $end
$scope module mem $end
$var reg 4 d \mem[20] [3:0] $end
$upscope $end
$upscope $end
$upscope $end
$upscope $end
$scope module SimonTATest $end
$scope module simon $end
$scope module dpath $end
$scope module mem $end
$var reg 4 e \mem[21] [3:0] $end
$upscope $end
$upscope $end
$upscope $end
$upscope $end
$scope module SimonTATest $end
$scope module simon $end
$scope module dpath $end
$scope module mem $end
$var reg 4 f \mem[22] [3:0] $end
$upscope $end
$upscope $end
$upscope $end
$upscope $end
$scope module SimonTATest $end
$scope module simon $end
$scope module dpath $end
$scope module mem $end
$var reg 4 g \mem[23] [3:0] $end
$upscope $end
$upscope $end
$upscope $end
$upscope $end
$scope module SimonTATest $end
$scope module simon $end
$scope module dpath $end
$scope module mem $end
$var reg 4 h \mem[24] [3:0] $end
$upscope $end
$upscope $end
$upscope $end
$upscope $end
$scope module SimonTATest $end
$scope module simon $end
$scope module dpath $end
$scope module mem $end
$var reg 4 i \mem[25] [3:0] $end
$upscope $end
$upscope $end
$upscope $end
$upscope $end
$scope module SimonTATest $end
$scope module simon $end
$scope module dpath $end
$scope module mem $end
$var reg 4 j \mem[26] [3:0] $end
$upscope $end
$upscope $end
$upscope $end
$upscope $end
$scope module SimonTATest $end
$scope module simon $end
$scope module dpath $end
$scope module mem $end
$var reg 4 k \mem[27] [3:0] $end
$upscope $end
$upscope $end
$upscope $end
$upscope $end
$scope module SimonTATest $end
$scope module simon $end
$scope module dpath $end
$scope module mem $end
$var reg 4 l \mem[28] [3:0] $end
$upscope $end
$upscope $end
$upscope $end
$upscope $end
$scope module SimonTATest $end
$scope module simon $end
$scope module dpath $end
$scope module mem $end
$var reg 4 m \mem[29] [3:0] $end
$upscope $end
$upscope $end
$upscope $end
$upscope $end
$scope module SimonTATest $end
$scope module simon $end
$scope module dpath $end
$scope module mem $end
$var reg 4 n \mem[30] [3:0] $end
$upscope $end
$upscope $end
$upscope $end
$upscope $end
$scope module SimonTATest $end
$scope module simon $end
$scope module dpath $end
$scope module mem $end
$var reg 4 o \mem[31] [3:0] $end
$upscope $end
$upscope $end
$upscope $end
$upscope $end
$scope module SimonTATest $end
$scope module simon $end
$scope module dpath $end
$scope module mem $end
$var reg 4 p \mem[32] [3:0] $end
$upscope $end
$upscope $end
$upscope $end
$upscope $end
$scope module SimonTATest $end
$scope module simon $end
$scope module dpath $end
$scope module mem $end
$var reg 4 q \mem[33] [3:0] $end
$upscope $end
$upscope $end
$upscope $end
$upscope $end
$scope module SimonTATest $end
$scope module simon $end
$scope module dpath $end
$scope module mem $end
$var reg 4 r \mem[34] [3:0] $end
$upscope $end
$upscope $end
$upscope $end
$upscope $end
$scope module SimonTATest $end
$scope module simon $end
$scope module dpath $end
$scope module mem $end
$var reg 4 s \mem[35] [3:0] $end
$upscope $end
$upscope $end
$upscope $end
$upscope $end
$scope module SimonTATest $end
$scope module simon $end
$scope module dpath $end
$scope module mem $end
$var reg 4 t \mem[36] [3:0] $end
$upscope $end
$upscope $end
$upscope $end
$upscope $end
$scope module SimonTATest $end
$scope module simon $end
$scope module dpath $end
$scope module mem $end
$var reg 4 u \mem[37] [3:0] $end
$upscope $end
$upscope $end
$upscope $end
$upscope $end
$scope module SimonTATest $end
$scope module simon $end
$scope module dpath $end
$scope module mem $end
$var reg 4 v \mem[38] [3:0] $end
$upscope $end
$upscope $end
$upscope $end
$upscope $end
$scope module SimonTATest $end
$scope module simon $end
$scope module dpath $end
$scope module mem $end
$var reg 4 w \mem[39] [3:0] $end
$upscope $end
$upscope $end
$upscope $end
$upscope $end
$scope module SimonTATest $end
$scope module simon $end
$scope module dpath $end
$scope module mem $end
$var reg 4 x \mem[40] [3:0] $end
$upscope $end
$upscope $end
$upscope $end
$upscope $end
$scope module SimonTATest $end
$scope module simon $end
$scope module dpath $end
$scope module mem $end
$var reg 4 y \mem[41] [3:0] $end
$upscope $end
$upscope $end
$upscope $end
$upscope $end
$scope module SimonTATest $end
$scope module simon $end
$scope module dpath $end
$scope module mem $end
$var reg 4 z \mem[42] [3:0] $end
$upscope $end
$upscope $end
$upscope $end
$upscope $end
$scope module SimonTATest $end
$scope module simon $end
$scope module dpath $end
$scope module mem $end
$var reg 4 { \mem[43] [3:0] $end
$upscope $end
$upscope $end
$upscope $end
$upscope $end
$scope module SimonTATest $end
$scope module simon $end
$scope module dpath $end
$scope module mem $end
$var reg 4 | \mem[44] [3:0] $end
$upscope $end
$upscope $end
$upscope $end
$upscope $end
$scope module SimonTATest $end
$scope module simon $end
$scope module dpath $end
$scope module mem $end
$var reg 4 } \mem[45] [3:0] $end
$upscope $end
$upscope $end
$upscope $end
$upscope $end
$scope module SimonTATest $end
$scope module simon $end
$scope module dpath $end
$scope module mem $end
$var reg 4 ~ \mem[46] [3:0] $end
$upscope $end
$upscope $end
$upscope $end
$upscope $end
$scope module SimonTATest $end
$scope module simon $end
$scope module dpath $end
$scope module mem $end
$var reg 4 !" \mem[47] [3:0] $end
$upscope $end
$upscope $end
$upscope $end
$upscope $end
$scope module SimonTATest $end
$scope module simon $end
$scope module dpath $end
$scope module mem $end
$var reg 4 "" \mem[48] [3:0] $end
$upscope $end
$upscope $end
$upscope $end
$upscope $end
$scope module SimonTATest $end
$scope module simon $end
$scope module dpath $end
$scope module mem $end
$var reg 4 #" \mem[49] [3:0] $end
$upscope $end
$upscope $end
$upscope $end
$upscope $end
$scope module SimonTATest $end
$scope module simon $end
$scope module dpath $end
$scope module mem $end
$var reg 4 $" \mem[50] [3:0] $end
$upscope $end
$upscope $end
$upscope $end
$upscope $end
$scope module SimonTATest $end
$scope module simon $end
$scope module dpath $end
$scope module mem $end
$var reg 4 %" \mem[51] [3:0] $end
$upscope $end
$upscope $end
$upscope $end
$upscope $end
$scope module SimonTATest $end
$scope module simon $end
$scope module dpath $end
$scope module mem $end
$var reg 4 &" \mem[52] [3:0] $end
$upscope $end
$upscope $end
$upscope $end
$upscope $end
$scope module SimonTATest $end
$scope module simon $end
$scope module dpath $end
$scope module mem $end
$var reg 4 '" \mem[53] [3:0] $end
$upscope $end
$upscope $end
$upscope $end
$upscope $end
$scope module SimonTATest $end
$scope module simon $end
$scope module dpath $end
$scope module mem $end
$var reg 4 (" \mem[54] [3:0] $end
$upscope $end
$upscope $end
$upscope $end
$upscope $end
$scope module SimonTATest $end
$scope module simon $end
$scope module dpath $end
$scope module mem $end
$var reg 4 )" \mem[55] [3:0] $end
$upscope $end
$upscope $end
$upscope $end
$upscope $end
$scope module SimonTATest $end
$scope module simon $end
$scope module dpath $end
$scope module mem $end
$var reg 4 *" \mem[56] [3:0] $end
$upscope $end
$upscope $end
$upscope $end
$upscope $end
$scope module SimonTATest $end
$scope module simon $end
$scope module dpath $end
$scope module mem $end
$var reg 4 +" \mem[57] [3:0] $end
$upscope $end
$upscope $end
$upscope $end
$upscope $end
$scope module SimonTATest $end
$scope module simon $end
$scope module dpath $end
$scope module mem $end
$var reg 4 ," \mem[58] [3:0] $end
$upscope $end
$upscope $end
$upscope $end
$upscope $end
$scope module SimonTATest $end
$scope module simon $end
$scope module dpath $end
$scope module mem $end
$var reg 4 -" \mem[59] [3:0] $end
$upscope $end
$upscope $end
$upscope $end
$upscope $end
$scope module SimonTATest $end
$scope module simon $end
$scope module dpath $end
$scope module mem $end
$var reg 4 ." \mem[60] [3:0] $end
$upscope $end
$upscope $end
$upscope $end
$upscope $end
$scope module SimonTATest $end
$scope module simon $end
$scope module dpath $end
$scope module mem $end
$var reg 4 /" \mem[61] [3:0] $end
$upscope $end
$upscope $end
$upscope $end
$upscope $end
$scope module SimonTATest $end
$scope module simon $end
$scope module dpath $end
$scope module mem $end
$var reg 4 0" \mem[62] [3:0] $end
$upscope $end
$upscope $end
$upscope $end
$upscope $end
$scope module SimonTATest $end
$scope module simon $end
$scope module dpath $end
$scope module mem $end
$var reg 4 1" \mem[63] [3:0] $end
$upscope $end
$upscope $end
$upscope $end
$upscope $end
$enddefinitions $end
#0
$dumpvars
bx 1"
bx 0"
bx /"
bx ."
bx -"
bx ,"
bx +"
bx *"
bx )"
bx ("
bx '"
bx &"
bx %"
bx $"
bx #"
bx ""
bx !"
bx ~
bx }
bx |
bx {
bx z
bx y
bx x
bx w
bx v
bx u
bx t
bx s
bx r
bx q
bx p
bx o
bx n
bx m
bx l
bx k
bx j
bx i
bx h
bx g
bx f
bx e
bx d
bx c
bx b
bx a
bx `
bx _
bx ^
bx ]
bx \
bx [
bx Z
bx Y
bx X
bx W
bx V
bx U
bx T
bx S
bx R
bx Q
bx P
b0 O
b0 N
bx M
b0 L
b0 K
xJ
b0 I
b0 H
bx G
b0 F
bx E
b0 D
b11 C
b10 B
b1 A
b0 @
bx ?
bx >
bx =
bx <
0;
x:
19
08
07
06
bx 5
x4
b0 3
bx 2
x1
00
b0 /
b1000000 .
0-
0,
b0 +
0*
b0 )
0(
bx '
b0 &
x%
bx $
x#
z"
z!
$end
#10
18
1,
#30
1;
0:
b0 =
b1 '
b1 5
b1 <
04
b0 2
b0 >
b0 E
11
b0 P
b0 G
b0 M
b0 Q
b0 R
b0 S
b0 T
b0 U
b0 V
b0 W
b0 X
b0 Y
b0 Z
b0 [
b0 \
b0 ]
b0 ^
b0 _
b0 `
b0 a
b0 b
b0 c
b0 d
b0 e
b0 f
b0 g
b0 h
b0 i
b0 j
b0 k
b0 l
b0 m
b0 n
b0 o
b0 p
b0 q
b0 r
b0 s
b0 t
b0 u
b0 v
b0 w
b0 x
b0 y
b0 z
b0 {
b0 |
b0 }
b0 ~
b0 !"
b0 ""
b0 #"
b0 $"
b0 %"
b0 &"
b0 '"
b0 ("
b0 )"
b0 *"
b0 +"
b0 ,"
b0 -"
b0 ."
b0 /"
b0 0"
b0 1"
0J
b0 ?
10
1(
#40
00
0(
#60
08
0,
#80
b1 =
1:
b1 F
b1 &
b1 3
b1 K
0;
b1 +
b1 /
b1 D
b1 O
#100
b10 =
b1 2
b1 >
b1 E
14
b10 '
b10 5
b10 <
01
1;
b1 &
b1 3
b1 K
b1 ?
b1 P
b1 G
b1 M
10
1(
#110
00
0(
#130
0:
b10 =
b0 F
0;
b1 &
b1 3
b1 K
b0 +
b0 /
b0 D
b0 O
#150
b0 &
b0 3
b0 K
17
b11 =
b100 '
b100 5
b100 <
04
b10 2
b10 >
b10 E
b10 ?
10
1(
#160
00
0(
#180
1:
16
b0 =
07
b1 F
b1 &
b1 3
b1 K
1;
b1 +
b1 /
b1 D
b1 O
#200
b1 =
06
11
b1 '
b1 5
b1 <
b0 2
b0 >
b0 E
09
1;
b1 &
b1 3
b1 K
b0 ?
b1 I
b1 N
10
1(
#210
00
0(
#230
1*
#250
0:
b0 =
b10 F
0;
b1010 &
b1010 3
b1010 K
b1010 +
b1010 /
b1010 D
b1010 O
#270
b1010 Q
10
1(
#280
00
0(
#300
b1 =
1:
b1 F
b1000 &
b1000 3
b1000 K
b1000 +
b1000 /
b1000 D
b1000 O
#320
b1 &
b1 3
b1 K
b1 2
b1 >
b1 E
14
b10 '
b10 5
b10 <
01
b1 ?
b1000 Q
10
1(
#330
00
0(
#350
0:
b0 F
b1 &
b1 3
b1 K
b0 +
b0 /
b0 D
b0 O
#370
b10 =
19
b1000 &
b1000 3
b1000 K
b1000 G
b1000 M
b1 H
b1 L
10
1(
#380
00
0(
#400
17
b11 =
b100 '
b100 5
b100 <
04
b10 2
b10 >
b10 E
09
b0 &
b0 3
b0 K
b10 ?
b1 G
b1 M
b0 H
b0 L
10
1(
#410
00
0(
#430
1:
b10 =
07
b1 F
b1 &
b1 3
b1 K
1;
b1 +
b1 /
b1 D
b1 O
#450
17
b11 =
19
0;
b1 &
b1 3
b1 K
b1000 G
b1000 M
b1 H
b1 L
10
1(
#460
00
0(
#480
b1 F
b100 &
b100 3
b100 K
b100 +
b100 /
b100 D
b100 O
#500
14
b111 '
b111 5
b111 <
b11 2
b11 >
b11 E
b11 ?
b11 =
07
09
b1 &
b1 3
b1 K
b1 G
b1 M
b0 H
b0 L
10
1(
#510
00
0(
#530
0:
b0 F
b1 &
b1 3
b1 K
b0 +
b0 /
b0 D
b0 O
#550
19
b1000 &
b1000 3
b1000 K
b1000 G
b1000 M
b1 H
b1 L
10
1(
#560
00
0(
#580
09
b1 &
b1 3
b1 K
b1 G
b1 M
b0 H
b0 L
10
1(
